{
  "jira.CreationDate" : "2014-06-02",
  "jira.PurchaseDate" : "2014-06-02",
  "jira.Description" : "Evaluation to expire tomorrow.",
  "jira.Evaluation" : "true",
  "jira.LicenseEdition" : "ENTERPRISE",
  "jira.LicenseExpiryDate" : "Duration:115200000",
  "jira.LicenseID" : "LicenseID",
  "jira.LicenseTypeName" : "COMMERCIAL",
  "jira.LicenseExpiryDate": "P26H",
  "jira.NumberOfUsers" : "-1",
  "jira.SEN" : "SEN",
  "jira.ServerID" : "ServerID",
  "jira.active" : "true",
  "licenseVersion" : "2"
}