{
  "jira.CreationDate" : "2014-06-02",
  "jira.PurchaseDate" : "2014-06-02",
  "jira.Description" : "Maintenance to expire in 7 days.",
  "jira.LicenseEdition" : "ENTERPRISE",
  "jira.LicenseExpiryDate" : "unlimited",
  "jira.LicenseID" : "LicenseID",
  "jira.LicenseTypeName" : "COMMERCIAL",
  "jira.MaintenanceExpiryDate" : "Duration:691200000",
  "jira.NumberOfUsers" : "-1",
  "jira.SEN" : "SEN",
  "jira.ServerID" : "ServerID",
  "jira.active" : "true",
  "licenseVersion" : "2"
}