<?xml version="1.0" encoding="UTF-8" standalone="no"?>
<svg width="130px" height="130px" viewBox="0 0 130 130" version="1.1" xmlns="http://www.w3.org/2000/svg" xmlns:xlink="http://www.w3.org/1999/xlink" xmlns:sketch="http://www.bohemiancoding.com/sketch/ns">
    <!-- Generator: Sketch 3.1 (8751) - http://www.bohemiancoding.com/sketch -->
    <title>create</title>
    <desc>Created with Sketch.</desc>
    <defs></defs>
    <g id="Page-1" stroke="none" stroke-width="1" fill="none" fill-rule="evenodd" sketch:type="MSPage">
        <g id="create" sketch:type="MSArtboardGroup">
            <g id="Create" sketch:type="MSLayerGroup" transform="translate(5.000000, 5.000000)">
                <circle id="Oval-2" stroke="#205081" stroke-width="2" fill="#F5F5F5" sketch:type="MSShapeGroup" cx="60" cy="60" r="60"></circle>
                <g id="Pencil" transform="translate(60.500000, 60.500000) rotate(-180.000000) translate(-60.500000, -60.500000) translate(28.000000, 28.000000)" sketch:type="MSShapeGroup">
                    <path d="M60.5242404,12.4001908 L52.2191143,4.09506477 L64.6137536,0.00555155483 L60.5242404,12.4001908 L60.5242404,12.4001908 Z" id="Fill-1" fill="#FFFFFF"></path>
                    <path d="M60.5242404,12.4001908 L52.2191143,4.09506477 L64.6137536,0.00555155483 L60.5242404,12.4001908 L60.5242404,12.4001908 Z" id="Stroke-2" stroke="#1A4263" stroke-width="2" stroke-linejoin="round"></path>
                    <path d="M14.9003732,58.024058 L6.59524714,49.718932 L52.2191143,4.09506477 L60.5242404,12.4001908 L14.9003732,58.024058 L14.9003732,58.024058 Z" id="Fill-3" fill="#F6C342"></path>
                    <path d="M14.9003732,58.024058 L6.59524714,49.718932 L52.2191143,4.09506477 L60.5242404,12.4001908 L14.9003732,58.024058 L14.9003732,58.024058 Z" id="Stroke-4" stroke="#1A4263" stroke-width="2" stroke-linejoin="round"></path>
                    <path d="M6.62340145,64.1347337 L0.484571429,57.9959037 C-0.113410334,57.3979219 -0.113410334,56.427986 0.484571429,55.8296077 L6.59524714,49.718932 L14.9003732,58.024058 L8.78969745,64.1347337 C8.19131915,64.7327155 7.22138321,64.7327155 6.62340145,64.1347337 L6.62340145,64.1347337 Z" id="Fill-5" fill="#F691B2"></path>
                    <path d="M6.62340145,64.1347337 L0.484571429,57.9959037 C-0.113410334,57.3979219 -0.113410334,56.427986 0.484571429,55.8296077 L6.59524714,49.718932 L14.9003732,58.024058 L8.78969745,64.1347337 C8.19131915,64.7327155 7.22138321,64.7327155 6.62340145,64.1347337 L6.62340145,64.1347337 Z" id="Stroke-6" stroke="#1A4263" stroke-width="2" stroke-linejoin="round"></path>
                </g>
            </g>
        </g>
    </g>
</svg>