<?xml version="1.0" encoding="UTF-8" standalone="no"?>
<svg width="130px" height="130px" viewBox="0 0 130 130" version="1.1" xmlns="http://www.w3.org/2000/svg" xmlns:xlink="http://www.w3.org/1999/xlink" xmlns:sketch="http://www.bohemiancoding.com/sketch/ns">
    <!-- Generator: Sketch 3.1 (8751) - http://www.bohemiancoding.com/sketch -->
    <title>explore</title>
    <desc>Created with Sketch.</desc>
    <defs></defs>
    <g id="Page-1" stroke="none" stroke-width="1" fill="none" fill-rule="evenodd" sketch:type="MSPage">
        <g id="explore" sketch:type="MSArtboardGroup" stroke="#205081" stroke-width="2">
            <g id="Explore-3" sketch:type="MSLayerGroup" transform="translate(5.000000, 5.000000)">
                <circle id="Oval-1" fill="#F5F5F5" sketch:type="MSShapeGroup" cx="60" cy="60" r="60"></circle>
                <circle id="Oval-7" fill="#59AFE1" sketch:type="MSShapeGroup" cx="60" cy="60" r="36"></circle>
                <circle id="Oval-8" fill="#FFFFFF" sketch:type="MSShapeGroup" cx="60" cy="60" r="31"></circle>
                <path d="M60,29 L60,34" id="Line" stroke-linecap="square" sketch:type="MSShapeGroup"></path>
                <path d="M60,86 L60,91" id="Line-2" stroke-linecap="square" sketch:type="MSShapeGroup"></path>
                <path d="M32,58 L32,63" id="Line-2" stroke-linecap="square" sketch:type="MSShapeGroup" transform="translate(32.000000, 60.500000) rotate(-90.000000) translate(-32.000000, -60.500000) "></path>
                <path d="M88,58 L88,63" id="Line-3" stroke-linecap="square" sketch:type="MSShapeGroup" transform="translate(88.000000, 60.500000) rotate(-90.000000) translate(-88.000000, -60.500000) "></path>
                <g id="Triangle-1-+-Triangle-2" transform="translate(60.000000, 60.500000) rotate(-225.000000) translate(-60.000000, -60.500000) translate(53.000000, 44.000000)" sketch:type="MSShapeGroup" stroke-linejoin="round">
                    <polygon id="Triangle-1" fill="#FFFFFF" points="7 -2.13162821e-13 14 16 9.9475983e-14 16 "></polygon>
                    <path d="M9.9475983e-14,17 L14,17 L7,33 L9.9475983e-14,17 Z" id="Triangle-2" fill="#FF6254"></path>
                </g>
            </g>
        </g>
    </g>
</svg>