<?xml version="1.0" encoding="UTF-8" standalone="no"?>
<svg width="130px" height="130px" viewBox="0 0 130 130" version="1.1" xmlns="http://www.w3.org/2000/svg" xmlns:xlink="http://www.w3.org/1999/xlink" xmlns:sketch="http://www.bohemiancoding.com/sketch/ns">
    <!-- Generator: Sketch 3.2.2 (9983) - http://www.bohemiancoding.com/sketch -->
    <title>import</title>
    <desc>Created with Sketch.</desc>
    <defs></defs>
    <g id="Page-1" stroke="none" stroke-width="1" fill="none" fill-rule="evenodd" sketch:type="MSPage">
        <g id="import" sketch:type="MSArtboardGroup" stroke="#205081" stroke-width="2">
            <g sketch:type="MSLayerGroup" transform="translate(5.000000, 5.000000)">
                <path d="M60,120 C93.137085,120 120,93.137085 120,60 C120,26.862915 93.137085,0 60,0 C26.862915,0 0,26.862915 0,60 C0,93.137085 26.862915,120 60,120 Z" id="Oval-2" fill="#F5F5F5" sketch:type="MSShapeGroup"></path>
                <g id="vacuum" transform="translate(34.000000, 15.000000)" sketch:type="MSShapeGroup" stroke-linejoin="round">
                    <path d="M13.5,59 L0,74 L21,80 L33,64 L13.5,59 Z" id="Path-14" stroke-linecap="round" fill-opacity="0.600033967" fill="#D04437"></path>
                    <path d="M13,59 C13,59 10,53 11,37 C12,21 18,13 18,13 L34.9999995,14 C34.9999995,14 40.0000017,25 39.0000009,39 C38,53 33.0000009,64 33.0000009,64 L13,59 Z" id="Path-15" stroke-linecap="round" fill-opacity="0.299281024" fill="#D39C3F"></path>
                    <path d="M0,74 L1,79 L21,85 L21,80 L0,74 Z" id="Path-16" stroke-linecap="round" fill-opacity="0.600033967" fill="#D04437"></path>
                    <path d="M21,85 L34,72 L34,63 L21,80 L21,85 Z" id="Path-17" stroke-linecap="square" fill-opacity="0.600033967" fill="#D04437"></path>
                    <path d="M20,60 L25,8 L34,3 L36,6 L29,10 L24,61 L20,60 Z" id="Path-18" stroke-linecap="round" fill="#BBB8B8"></path>
                    <path d="M35,4 C35,4 40,-2.00000007 47,0.999999987 C54,4.00000005 48,9.35154443 51,14 C54,18.6484557 63,15 63,15" id="Path-19" stroke-linecap="round"></path>
                    <path d="M35,14 L36,14 C36,14 40,25.5 40,39 C40,52.5 34,64 34,64 C34,64 40.2578235,49.6177063 40,37.5 C39.7421765,25.3822937 35,14 35,14 Z" id="Path-20" fill="#205081"></path>
                </g>
            </g>
        </g>
    </g>
</svg>