<?xml version="1.0" encoding="UTF-8" standalone="no"?>
<svg width="130px" height="130px" viewBox="0 0 130 130" version="1.1" xmlns="http://www.w3.org/2000/svg" xmlns:xlink="http://www.w3.org/1999/xlink" xmlns:sketch="http://www.bohemiancoding.com/sketch/ns">
    <!-- Generator: Sketch 3.1 (8751) - http://www.bohemiancoding.com/sketch -->
    <title>search</title>
    <desc>Created with Sketch.</desc>
    <defs></defs>
    <g id="Page-1" stroke="none" stroke-width="1" fill="none" fill-rule="evenodd" sketch:type="MSPage">
        <g id="search" sketch:type="MSArtboardGroup" stroke="#205081" stroke-width="2">
            <g id="Search" sketch:type="MSLayerGroup" transform="translate(5.000000, 5.000000)">
                <circle id="Oval-2" fill="#F5F5F5" sketch:type="MSShapeGroup" cx="60" cy="60" r="60"></circle>
                <path d="M75.592955,68.4500978 L91.6242661,84.7318982 C91.8747566,85.0287034 92,85.3679042 92,85.7495108 C92,86.1311174 91.8747566,86.4491181 91.6242661,86.7035225 L85.8003914,92.6183953 C85.5081525,92.8727997 85.1741702,93 84.7984344,93 C84.4226987,93 84.1095903,92.8727997 83.8590998,92.6183953 L67.8277886,76.3365949 C63.632073,79.1350433 58.9771945,80.5342466 53.8630137,80.5342466 C50.3561468,80.5342466 47.0058868,79.839945 43.8121331,78.4513209 C40.6183793,77.0626969 37.8682438,75.1970926 35.5616438,72.8544521 C33.2550439,70.5118115 31.4181412,67.7187051 30.0508806,64.4750489 C28.68362,61.2313928 28,57.8287849 28,54.2671233 C28,50.7054616 28.68362,47.3028538 30.0508806,44.0591977 C31.4181412,40.8155415 33.2550439,38.0224351 35.5616438,35.6797945 C37.8682438,33.337154 40.6183793,31.4715497 43.8121331,30.0829256 C47.0058868,28.6943016 50.3561468,28 53.8630137,28 C57.3698805,28 60.7201406,28.6943016 63.9138943,30.0829256 C67.1076481,31.4715497 69.8577836,33.337154 72.1643836,35.6797945 C74.4709835,38.0224351 76.3078862,40.8155415 77.6751468,44.0591977 C79.0424074,47.3028538 79.7260274,50.7054616 79.7260274,54.2671233 C79.7260274,59.4612132 78.3483504,64.1888241 75.592955,68.4500978 Z M38.5831703,63.2348337 C40.16961,65.9908814 42.3196211,68.1744864 45.0332681,69.7857143 C47.7469151,71.3969422 50.6901342,72.202544 53.8630137,72.202544 C57.0358932,72.202544 59.9791123,71.3969422 62.6927593,69.7857143 C65.4064063,68.1744864 67.5564174,65.9908814 69.1428571,63.2348337 C70.7292969,60.478786 71.5225049,57.4895791 71.5225049,54.2671233 C71.5225049,51.0446675 70.7292969,48.0554606 69.1428571,45.2994129 C67.5564174,42.5433652 65.4064063,40.3597602 62.6927593,38.7485323 C59.9791123,37.1373044 57.0358932,36.3317025 53.8630137,36.3317025 C50.6901342,36.3317025 47.7469151,37.1373044 45.0332681,38.7485323 C42.3196211,40.3597602 40.16961,42.5433652 38.5831703,45.2994129 C36.9967305,48.0554606 36.2035225,51.0446675 36.2035225,54.2671233 C36.2035225,57.4895791 36.9967305,60.478786 38.5831703,63.2348337 Z" id="icon-search-16" fill="#71C24D" sketch:type="MSShapeGroup"></path>
            </g>
        </g>
    </g>
</svg>