{
  "CreationDate" : "2039-12-01",
  "Description" : "JIRA Enterprise: Commercial Server",
  "Evaluation" : "false",
  "LicenseExpiryDate" : "P72H",
  "MaintenanceExpiryDate" : "P72H",
  "NumberOfUsers" : "3",
  "Organisation" : "Atlassian",
  "PurchaseDate" : "2039-12-01",
  "SEN" : "TestSEN",
  "ServerID" : "BG9T-XUV4-KZZH-B01W",
  "jira.LicenseEdition" : "ENTERPRISE",
  "jira.LicenseTypeName" : "ACADEMIC",
  "jira.active" : "true",
  "jira.product.jira-core.NumberOfUsers" : "2",
  "jira.product.jira-core.active" : "true",
  "licenseVersion" : "2"
}