{
  "CreationDate" : "2039-12-01",
  "Description" : "JIRA Enterprise: Commercial Server",
  "LicenseExpiryDate" : "P72H",
  "LicenseTypeName" : "COMMERCIAL",
  "MaintenanceExpiryDate" : "P72H",
  "NumberOfUsers" : "-1",
  "Organisation" : "Atlassian",
  "PurchaseDate" : "2039-12-01",
  "SEN" : "TestSEN",
  "ServerID" : "BG9T-XUV4-KZZH-B01W",
  "jira.LicenseEdition" : "ENTERPRISE",
  "jira.active" : "true",
  "jira.product.jira-software.NumberOfUsers" : "-1",
  "jira.product.jira-software.active" : "true",
  "licenseVersion" : "2"
}