aopalliance:aopalliance:1.0:jar:-:compile|org.springframework.security:spring-security-core:jar:3.1.0.RELEASE|{sha1}0235ba8b489512805ac13a8f9ea77a1ca5ebe3e8|{sha1}5128a2b0efbba460a1178d07773618e0986ea152
biz.aQute.bnd:biz.aQute.bndlib:2.4.1:jar:-:compile|com.atlassian.plugins:atlassian-plugins-osgi:jar:4.2.9|{sha1}8ff18c1e419fee8323825dd51d9e180f05c165aa|{sha1}bbf1b86cff367f8309cb25c5249b1cea48f4a181
com.atlassian.annotations:atlassian-annotations:1.1.0:jar:-:compile|com.atlassian.jira:jira-api:jar:7.3.8|{sha1}19a8d54fe30cafa009f5b04414a35a1b292c79e1|{sha1}60c86ff4c3d0587fc350b7b22908171b1eecd18e
com.atlassian.asap:asap-client-core:2.0.0:jar:-:compile|com.atlassian.crowd:crowd-integration-client-rest:jar:2.10.2-rc04|{sha1}ffad903b824128d49b20afc78dc9719f8d86a18a|{sha1}a0bfec7.3.86bd3d3c3d622d7538c71ed8cd5cc1
com.atlassian.asap:asap-common:2.0.0:jar:-:compile|com.atlassian.crowd:crowd-integration-client-rest:jar:2.10.2-rc04|{sha1}43a3e7d55f8838e7a696421289c4a4bbc2c35bfd|{sha1}57d12371fc272cf9108590cee37ab9857c7dd270
com.atlassian.beehive:beehive-api:1.1.0:jar:-:compile|com.atlassian.jira:jira-api:jar:7.3.8|{sha1}68ecdafbcfcc0854a29911d59a197b94473e1e0c|{sha1}bbaf0d1914f0da77f761ba4154225e338ab91332
com.atlassian.beehive:beehive-core:1.1.0:jar:-:compile|com.atlassian.beehive:beehive-single-node:jar:1.1.0|{sha1}b43f5eb4cdd8d599f3663a7af31c54368ad09bd3|{sha1}3597bc57d4b8a7f1ba4cd6a9730570173547b1c6
com.atlassian.cache:atlassian-cache-common-impl:2.13.3:jar:-:compile|com.atlassian.cache:atlassian-cache-ehcache:jar:2.13.3|{sha1}58f00167c9924bf449dc9f0bad83a946f381b58a|{sha1}4ef4ebf26ace598851b4ac65cfc79189793e967c
com.atlassian.collectors:atlassian-collectors-util:1.1:jar:-:compile|com.atlassian.jira:jira-api:jar:7.3.8|{sha1}ca1b7d3996501b0cbf0128ec6ce75392d0249017|{sha1}d88b36c7c8f799246c24bb416757881f3468b301
com.atlassian.core:atlassian-core:5.0.8:jar:-:compile|com.atlassian.jira:jira-api:jar:7.3.8|{sha1}6dd622b9ee5bdd9570a2873899a895ed54c05fa4|{sha1}95ffd41392f1a23c695c97a9bbcc12039bd6f7a4
com.atlassian.core:atlassian-core-thumbnail:5.0.8:jar:-:compile|com.atlassian.jira:jira-api:jar:7.3.8|{sha1}e126c6235df4c9bcf66bf0c4b6e8c2dd07139f14|{sha1}4151785a091648c8ac53cf848130d8f9f063f0e2
com.atlassian.core:atlassian-core-user:5.0.8:jar:-:compile|com.atlassian.jira:jira-api:jar:7.3.8|{sha1}99b9bb88c5e6ca0d104248bae66cf83f68e5e9ed|{sha1}5741bc81d9fafe16dc4a4b5cff97d93220d1c2de
com.atlassian.crowd:crowd-core-tiny:2.10.2-rc04:jar:-:compile|com.atlassian.crowd:embedded-crowd-core:jar:2.10.2-rc04|{sha1}4be765b2df023f0f5e8a5e5c11125b966a44b3c5|{sha1}5409182cba6b5fe6d437d7f0ce60d14b72608e6d
com.atlassian.crowd:crowd-integration-client-common:2.10.2-rc04:jar:-:compile|com.atlassian.crowd:crowd-integration-client-rest:jar:2.10.2-rc04|{sha1}9bf16d3da52bf84d5a6f9d38bc08f49c1a49a43c|{sha1}d1fd689ae3662d143d27a3e98aa36b28ba2d55d0
com.atlassian.crowd:embedded-crowd-api:2.10.2-rc04:jar:-:compile|com.atlassian.jira:jira-api:jar:7.3.8|{sha1}c5b3ba2d3fe176c00dac578a536c33ff6a1c1fdb|{sha1}f2ae760d3495734f32a896cbd7ce519c15aaea6e
com.atlassian.extension:atlassian-extension-accessor-api:1.0.0-m003:jar:-:compile|com.atlassian.extension:atlassian-extension-accessor-lib:jar:1.0.0-m003|{sha1}2e7f092c60d89495b4ac68c6e42c3e647db52e57|{sha1}15dc6e6d63a9fe6c89ed878ffae7532d988185b7
com.atlassian.extension:atlassian-extension-provider-api:1.0.0-m003:jar:-:compile|com.atlassian.extension:atlassian-extension-accessor-lib:jar:1.0.0-m003|{sha1}f8c3cbe5bd9bc9adbffdcd1c21351a47851264be|{sha1}87b5ee218e1e9ca35a84d2340828d57e212b9852
com.atlassian.extension:atlassian-extension-provider-lib:1.0.0-m003:jar:-:compile|com.atlassian.extension:atlassian-extension-plugins-lib:jar:1.0.0-m003|{sha1}8af0a2f951e3ad716a5b4d157c01a24ee3e6cb0e|{sha1}ceb4aa3614d969bd574af6a941b7f80053383af4
com.atlassian.extension:atlassian-extension-util-lib:1.0.0-m003:jar:-:compile|com.atlassian.extension:atlassian-extension-plugins-lib:jar:1.0.0-m003|{sha1}c26c430692f295d7e386e9d274655c7a3d739ac4|{sha1}71b9c2442c33c9bcef74e19e248ed3679d773e3f
com.atlassian.extras:atlassian-extras-api:3.2:jar:-:compile|com.atlassian.crowd:crowd-server-api:jar:2.10.2-rc04|{sha1}d664cc3688c58768c0038eea68ee106f58419161|{sha1}6c71852c2c7b70b9216d65066f0d4b2f571815ee
com.atlassian.fugue:fugue:2.6.0:jar:-:compile|com.atlassian.jira:jira-api:jar:7.3.8|{sha1}3782428e58629ea3df74567c77a47018e9615e3b|{sha1}88ed46ea8504349d29afc6d21a2aa12a3e62c064
com.atlassian.gzipfilter:atlassian-flushable-gzipoutputstream:1.1:jar:-:compile|com.atlassian.gzipfilter:atlassian-gzipfilter:jar:3.0.0|{sha1}3c4f49949c6021f396273e2afba4d6593450091c|{sha1}35fa254d20ddde7fe98bd0a049564b9e8205dbc0
com.atlassian.html:atlassian-html-encoder:1.4:jar:-:compile|com.atlassian.jira:jira-api:jar:7.3.8,opensymphony:webwork:jar:1.4-atlassian-30|{sha1}ce81d5978cad07227c77e148e225ed16f7721a31|{sha1}90898ab2ec4a30d8783142a3c56097a23e8e9d83
com.atlassian.image:atlassian-image-consumer:1.0.1:jar:-:compile|com.atlassian.jira:jira-api:jar:7.3.8,com.atlassian.core:atlassian-core:jar:5.0.8|{sha1}3e85562e44c029d8fe7944ad0119b998e57a7110|{sha1}2a21abc484996e083fc8e6077962060ba3efb0c5
com.atlassian.mail:atlassian-mail:2.7.18:jar:-:compile|com.atlassian.jira:jira-api:jar:7.3.8|{sha1}69db1c2a3abb5c53efacc08f35a99e5aa0e22cdf|{sha1}4531bf69472cd98d864ec45acba63e92071a5a0d
com.atlassian.plugins:atlassian-plugins-api:4.2.9:jar:-:compile|com.atlassian.jira:jira-api:jar:7.3.8|{sha1}06fc78b42ee07784e77b19efd50d3bdfce47cbd3|{sha1}61b1a78267c6a2c9506a04a8da4fcc912fee4660
com.atlassian.plugins:atlassian-plugins-webfragment:4.1.0:jar:-:compile|com.atlassian.jira:jira-api:jar:7.3.8|{sha1}a5dc3b116568c80d81487dc144d714646dfac991|{sha1}1d50f2da134d5b9de2c9d27050454744227fb8dd
com.atlassian.plugins:atlassian-plugins-webfragment-api:4.1.0:jar:-:compile|com.atlassian.jira:jira-api:jar:7.3.8|{sha1}8f93d6ff43a0a6b63718902232d43c498ee0dc37|{sha1}297604d9541e2dea88e6eb3cd07d2e6fc818e817
com.atlassian.plugins:atlassian-plugins-webresource-api:3.5.39:jar:-:compile|com.atlassian.plugins:atlassian-plugins-webresource:jar:3.5.39|{sha1}e63165de4db8eb35d2382c4e6add42cbf374ddfc|{sha1}63c8b8c8cf084b68d94f3e4e2d8be83c941a7190
com.atlassian.plugins:atlassian-plugins-webresource-compiler-gcc:3.5.39:jar:-:compile|com.atlassian.jira:jira-api:jar:7.3.8|{sha1}e61a513be3016d7736cc6cb1dc85c79c7f2486e4|{sha1}0789ff77fae54764e77dfb069294656120616145
com.atlassian.plugins:atlassian-plugins-webresource-spi:3.5.39:jar:-:compile|com.atlassian.plugins:atlassian-plugins-webresource:jar:3.5.39|{sha1}c7c6485d374f3d688212ceb1b06a8a0dfe83869c|{sha1}491af0a333076a50b53ade60ada23f2fb99355de
com.atlassian.scheduler:atlassian-scheduler-api:1.7.0:jar:-:compile|com.atlassian.jira:jira-api:jar:7.3.8|{sha1}e7fd65da12539ebdc17d52509ad5dac0f4d8587c|{sha1}edafce0c6f708e95b0b1d13dffc3358ba4d70384
com.atlassian.security:atlassian-cookie-tools:3.2.3:jar:-:compile|com.atlassian.seraph:atlassian-seraph:jar:3.0.3|{sha1}604507f4b7770928d85a23c40440eff2a4e05514|{sha1}7d6f040e214cf79084d2b31d17fc904f90b622ba
com.atlassian.sourcemap:sourcemap:1.7.6:jar:-:compile|com.atlassian.plugins:atlassian-plugins-webresource:jar:3.5.39|{sha1}62eb5eab3be06f7e24b6426b08764e7d27d78c63|{sha1}a312d71b6f40bf680640ae903b3d6470783e01f0
com.atlassian.spring:atlassian-spring:2.0.0:jar:-:compile|com.atlassian.config:atlassian-config:jar:0.15|{sha1}f6d08b465ecaa795b7cfd41903359fe0fc062d70|{sha1}4402639f5baed373c5667ead3d7b85c20476354b
com.atlassian.upgrade:upgrade-task-framework-api:2.0.1:jar:-:compile|com.atlassian.jira:jira-api:jar:7.3.8|{sha1}c50c4ea7d899b7ce522701fd4e230c1f0299e2fa|{sha1}8c4c0747ae2b44d89ee7c467bcd6f6415049b77a
com.atlassian.vcache:atlassian-vcache-api:1.4.0:jar:-:compile|com.atlassian.vcache:atlassian-vcache-internal-api:jar:1.4.0|{sha1}66cb55048583b6257a2b8cd929c8affe0be21ded|{sha1}f3ed22af1e5283bcf9c843b32c537d6ce054479d
com.atlassian.vcache:atlassian-vcache-internal-core:1.4.0:jar:-:compile|com.atlassian.vcache:atlassian-vcache-internal-legacy:jar:1.4.0|{sha1}69e819516fa62279e0ff005e64a23285c5e146b2|{sha1}dfe9aead49fc20cda9c9d18b9e1fcf7ec0d2abc1
com.atlassian.vcache:atlassian-vcache-internal-guava:1.4.0:jar:-:compile|com.atlassian.vcache:atlassian-vcache-internal-memcached:jar:1.4.0|{sha1}c0c8d0537285b1bf4a488f2d21e638d3338dfba1|{sha1}8de00f426702b97973a9d9cae1210d36ccb1716b
com.atlassian.velocity:atlassian-velocity:1.3:jar:-:compile|com.atlassian.jira:jira-api:jar:7.3.8|{sha1}b51cf1ab3cadc4e2e1bc46957b2eef1c501e3ab7|{sha1}bb1c9e278b73a45323603958ef4249d9476f0c8f
com.github.rholder:guava-retrying:1.0.7:jar:-:compile|com.atlassian:atlassian-logging:jar:2.15|{sha1}835988b11c393626145d320c297ae9cae5097e8e|{sha1}0d0be28a12e4316359617bdac834cec46c9b998c
com.google.code.gson:gson:2.2.2-atlassian-1:jar:-:compile|com.atlassian.plugins:atlassian-landlord-spi:jar:2.0.7|{sha1}0cfb0ac68acdb3a5ce496fd98a21791015d5ec25|{sha1}10f8bd45e4ee8a2b6e5798720fdd0d2a2f865c2a
com.google.guava:guava:18.0:jar:-:compile|com.atlassian.jira:jira-api:jar:7.3.8|{sha1}cce0823396aa693798f8882e64213b1772032b09|{sha1}2ec12f8d27a64e970b8be0fbd1d52dfec51cd41c
com.google.javascript:closure-compiler:v20151216:jar:-:compile|com.atlassian.jira:jira-api:jar:7.3.8|{sha1}b5cd14a356cd9079791ba10b6d9623ef4ae4df6e|{sha1}b38b026d67c1086b15516e90f0cc99e9070e9c33
com.mysema.commons:mysema-commons-lang:0.2.4:jar:-:compile|com.querydsl:querydsl-sql:jar:4.0.7,com.querydsl:querydsl-core:jar:4.0.7|{sha1}d09c8489d54251a6c22fbce804bdd4a070557317|{sha1}d0e9804e81ff6ea6f6eb67d8a96462ab2e8da8aa
com.nimbusds:nimbus-jose-jwt:3.10:jar:-:compile|com.atlassian.crowd:crowd-integration-client-rest:jar:2.10.2-rc04,com.atlassian.asap:asap-common:jar:2.0.0|{sha1}4c52cc9191abde51bee465ce3acefcee8803a17f|{sha1}e806bfdb207e3616a63aa801fe458f70b833f826
com.querydsl:querydsl-core:4.0.7:jar:-:compile|com.querydsl:querydsl-sql:jar:4.0.7|{sha1}adaea1323ce0f59b2f782b774f3d3de231508d16|{sha1}98e82b2277a9dffa53a96ee5f34d6f82388ba483
com.twelvemonkeys.common:common-image:3.2:jar:-:compile|com.atlassian.jira:jira-api:jar:7.3.8,com.atlassian.core:atlassian-core-thumbnail:jar:5.0.8,com.twelvemonkeys.imageio:imageio-jpeg:jar:3.2|{sha1}d81a3e639387100e957d416d709730f478a8fafe|{sha1}ccb1b8c99ee2b334ea6e277e21f8b7346ffc50c6
com.twelvemonkeys.common:common-io:3.2:jar:-:compile|com.atlassian.jira:jira-api:jar:7.3.8,com.atlassian.core:atlassian-core-thumbnail:jar:5.0.8,com.twelvemonkeys.imageio:imageio-jpeg:jar:3.2|{sha1}06c0e28951f060bbcfa00889eb03919f5b3250c0|{sha1}dff1dc920994f9bb9cbe0d200616d4fd1e097632
com.twelvemonkeys.common:common-lang:3.2:jar:-:compile|com.atlassian.jira:jira-api:jar:7.3.8,com.atlassian.core:atlassian-core-thumbnail:jar:5.0.8,com.twelvemonkeys.imageio:imageio-jpeg:jar:3.2|{sha1}3f848212bf5d45baaef273a15720c80d40dd12af|{sha1}39513acc0a5153dfcfafe438e1462362a5d6821e
com.twelvemonkeys.imageio:imageio-core:3.2:jar:-:compile|com.atlassian.jira:jira-api:jar:7.3.8,com.atlassian.core:atlassian-core-thumbnail:jar:5.0.8,com.twelvemonkeys.imageio:imageio-jpeg:jar:3.2|{sha1}8ef73312392e6898e03d2a4c2c966bc6f65bb0cb|{sha1}6aa482dcb577aaf884a5649fe922e4f773ce8e74
com.twelvemonkeys.imageio:imageio-jpeg:3.2:jar:-:compile|com.atlassian.jira:jira-api:jar:7.3.8,com.atlassian.core:atlassian-core-thumbnail:jar:5.0.8|{sha1}d1a4636236a1e38a08abb76fe0a8197c950ac306|{sha1}fb6e794fc1bfd2c44dd6310be3918a6757eaaa93
com.twelvemonkeys.imageio:imageio-metadata:3.2:jar:-:compile|com.atlassian.jira:jira-api:jar:7.3.8,com.atlassian.core:atlassian-core-thumbnail:jar:5.0.8,com.twelvemonkeys.imageio:imageio-jpeg:jar:3.2|{sha1}f69eb9b4bd02dcf8e153611c35cb3952a6b1c260|{sha1}f901b756410d4518fb2267bd6b3ee7e18c853612
com.twelvemonkeys.imageio:imageio-tiff:3.2:jar:-:compile|com.atlassian.jira:jira-api:jar:7.3.8,com.atlassian.core:atlassian-core-thumbnail:jar:5.0.8|{sha1}84bec31b13959a42c9445d00791fffe68c013fb8|{sha1}40cf2d812e3da7c925b37313c1721484c687bbef
commons-io:commons-io:2.1:jar:-:compile|com.atlassian.jira:jira-api:jar:7.3.8|{sha1}fd51f906669f49a4ffd06650666c3b8147a6106e|{sha1}bee5c8a3061394d39f7df1e38d25028edac7cdd9
commons-lang:commons-lang:2.6:jar:-:compile|com.atlassian.jira:jira-api:jar:7.3.8|{sha1}0ce1edb914c94ebc388f086c6827e8bdeec71ac2|{sha1}347d60b180fa80e5699d8e2cb72c99c93dda5454
commons-logging:commons-logging:1.1.1:jar:-:compile|org.springframework:spring-core:jar:4.1.6.RELEASE|{sha1}5043bfebc3db072ed80fbd362e7caf00e885d8ae|{sha1}76672afb562b9e903674ad3a544cdf2092f1faa3
commons-pool:commons-pool:1.5.4:jar:-:compile|com.atlassian.velocity.htmlsafe:velocity-htmlsafe:jar:1.4|{sha1}75b6e20c596ed2945a259cea26d7fadd298398e6|{sha1}dd31854c32be18535c5b7efb5f8d39b4aef434f7
javax.validation:validation-api:1.1.0.Final:jar:-:compile|com.atlassian.jira:jira-api:jar:7.3.8|{sha1}8613ae82954779d518631e05daa73a6a954817d5|{sha1}0d2ad4d1498d1048abc6c6948fd3f835d8fdafb0
joda-time:joda-time:2.8.2:jar:-:compile|com.atlassian.jira:jira-api:jar:7.3.8|{sha1}d27c24204c5e507b16fec01006b3d0f1ec42aed4|{sha1}f8df631ef5c18b7bc8560f7afb897cc6d9166067
log4j:log4j:1.2.16:jar:-:compile|com.atlassian.jira:jira-api:jar:7.3.8|{sha1}7999a63bfccbc7c247a9aea10d83d4272bd492c6|{sha1}88efb1b8d3d993fe339e9e2b201c75eed57d4c65
net.jcip:jcip-annotations:1.0:jar:-:compile|com.atlassian.gadgets:atlassian-gadgets-spi:jar:4.2.16|{sha1}6055a7559d9e7ba1ff8fa62b55f0eaad3af7046e|{sha1}b6bcfe0971facb6956e369a6ca29466039c2acfa
net.minidev:json-smart:1.3.1:jar:-:compile|com.atlassian.crowd:crowd-integration-client-rest:jar:2.10.2-rc04,com.atlassian.asap:asap-common:jar:2.0.0,com.nimbusds:nimbus-jose-jwt:jar:3.10|{sha1}69b3835e96d282ec85fc2e1517b8164c45ed639e|{sha1}d8c2e64328a8f5d7fafaf7917c0178ac33ab08e4
net.sf.cssbox:jstyleparser:1.16-atlassian-1:jar:-:compile|com.atlassian.botocss:botocss-core:jar:6.4|{sha1}8c7f7afa8282801cfd00619ca19d090b6f8ab338|{sha1}fe632006e533f37c1f973514ac53de5bda278162
net.sf.ehcache:ehcache:2.10.2-atlassian-4:jar:-:compile|com.atlassian.cache:atlassian-cache-ehcache:jar:2.13.3|{sha1}59ae50beaced21b3f6c75d2e1a4e9bd3fb870898|{sha1}b9b9e92aca1083786cce9b51dd78e4ea7caeb85c
net.sourceforge.nekohtml:nekohtml:1.9.19:jar:-:compile|com.atlassian.botocss:botocss-core:jar:6.4,net.sf.cssbox:jstyleparser:jar:1.16-atlassian-1|{sha1}8a49406347d345bade1e6152e05e5f4dcbf7def5|{sha1}4cd5e65aae3bd7a1324e45dfbaa868d50c3e49e5
net.spy:spymemcached:2.12.0:jar:-:compile|com.atlassian.vcache:atlassian-vcache-internal-memcached:jar:1.4.0|{sha1}feac6a9c8019dc1daa77f67ce810951aac5cfbb5|{sha1}4d4eff6d7ca56a86af928abae11d85e9b29cc82a
opensymphony:propertyset:1.5:jar:-:compile|com.atlassian.jira:jira-api:jar:7.3.8|{sha1}c1ed61176d9546e3a2bbca37a3c7335124f2e3b6|{sha1}335f163db17138a47761af71e5afad4a76ab2dd3
opensymphony:webwork:1.4-atlassian-30:jar:-:compile|com.atlassian.jira:jira-api:jar:7.3.8|{sha1}7c8c81beee88096e0f83404c483329abf6a32270|{sha1}23c45ce1a06cc57220f8e583e08b885d70566a73
org.apache.commons:commons-lang3:3.3.2:jar:-:compile|com.atlassian.jira:jira-api:jar:7.3.8|{sha1}90a3822c38ec8c996e84c16a3477ef632cbc87a3|{sha1}932ed8226f371b204d04a8c4d3d5fe0f2b26339f
org.apache.felix:org.apache.felix.framework:4.2.1:jar:-:compile|com.atlassian.plugins:atlassian-plugins-osgi:jar:4.2.9|{sha1}13d4b8370205d94fe7b59ccb54b44d5f2d31229d|{sha1}2aed48e993439c31f54c6c605ca646910a5521d5
org.apache.httpcomponents:httpcore:4.4.1:jar:-:compile|org.apache.httpcomponents:httpclient:jar:4.4.1|{sha1}f5aa318bda4c6c8d688c9d00b90681dcd82ce636|{sha1}76dee61699141b27d6423a28e3778be5aa2bc2bd
org.apache.logging.log4j:log4j2-stacktrace-origins:2.2-atlassian-2:jar:-:compile|com.atlassian:atlassian-logging:jar:2.15|{sha1}7a9daa5ce56afc795a602d38a2dc58d066ade7c3|{sha1}a31e00dd375e4b141ceb2cfe96fa4c287bd7c209
org.apache.lucene:lucene-core:3.3.0-atlassian-1:jar:-:compile|com.atlassian.jira:jira-lucene-dmz:jar:7.3.8|{sha1}3a4377cc64d07997c26c6ad43b1b17ea16ab6d30|{sha1}983b518a9d28b6fc7f8e37e50fc3be565e916fdb
org.apache.servicemix.bundles:org.apache.servicemix.bundles.javax-inject:1_2:jar:-:compile|com.querydsl:querydsl-sql:jar:4.0.7|{sha1}f146c0e62c9a8c62e04fb99b6f1b8e1cd8213be9|{sha1}391ffe02ae50708f7af3274d98898ec95ea59d23
org.apache.xmlgraphics:batik-anim:1.7:jar:-:compile|org.apache.xmlgraphics:batik-transcoder:jar:1.7,org.apache.xmlgraphics:batik-bridge:jar:1.7|{sha1}a45dd2ff8e4ecd56a4fc64dc668b53bee90bf601|{sha1}aa8c0e289d9abfc72c52f739858c1dd4fd5abeba
org.apache.xmlgraphics:batik-awt-util:1.7:jar:-:compile|org.apache.xmlgraphics:batik-transcoder:jar:1.7|{sha1}67605a29d49bf33f3c1d7832f490b0a007e7a6e2|{sha1}80b059d03a0cff36ee71c042401ab2e74f5109fb
org.apache.xmlgraphics:batik-bridge:1.7:jar:-:compile|org.apache.xmlgraphics:batik-transcoder:jar:1.7|{sha1}8e0cde3830e0f17704cd392b0a09b13944987a51|{sha1}e6e33ed9fc647ecce41a3e59a258316e8056b978
org.apache.xmlgraphics:batik-css:1.7:jar:-:compile|org.apache.xmlgraphics:batik-transcoder:jar:1.7,org.apache.xmlgraphics:batik-bridge:jar:1.7|{sha1}e6bb5c85753331534593f33fb9236acb41a0ab79|{sha1}b8812594f5ed543db5f75d644573e30f80f9479f
org.apache.xmlgraphics:batik-dom:1.7:jar:-:compile|org.apache.xmlgraphics:batik-transcoder:jar:1.7|{sha1}710d559bd1df52581b57b75a99ed5fd2e2918bb7|{sha1}e7c402b2f2c6675ff87d1de79ea457a5c9205986
org.apache.xmlgraphics:batik-ext:1.7:jar:-:compile|org.apache.xmlgraphics:batik-transcoder:jar:1.7,org.apache.xmlgraphics:batik-bridge:jar:1.7|{sha1}4784302b44a0336166fef6153a5e3d73e861aecc|{sha1}7a8bbd54bdfe17d94214fdff3e68104bee681d0d
org.apache.xmlgraphics:batik-gvt:1.7:jar:-:compile|org.apache.xmlgraphics:batik-transcoder:jar:1.7|{sha1}03d315e60d72c761c52946b4acaa4b86239ef938|{sha1}549b17acd8f9f796750fd58e83bdaf45221ceb83
org.apache.xmlgraphics:batik-parser:1.7:jar:-:compile|org.apache.xmlgraphics:batik-transcoder:jar:1.7,org.apache.xmlgraphics:batik-bridge:jar:1.7|{sha1}5d756cc4f6bf891793e6c7590773859c33a8609f|{sha1}3f97e33e1ee4c53a6f581dc8c6b7a60b07298ff9
org.apache.xmlgraphics:batik-script:1.7:jar:-:compile|org.apache.xmlgraphics:batik-transcoder:jar:1.7,org.apache.xmlgraphics:batik-bridge:jar:1.7|{sha1}4ea7906724bfefc1fca3e5b28229a458523e1fbf|{sha1}188e89e0eb11abdacd18d9728c919e0bd7a40c2e
org.apache.xmlgraphics:batik-svg-dom:1.7:jar:-:compile|org.apache.xmlgraphics:batik-transcoder:jar:1.7|{sha1}5b3b1fea480fabbd3e0c44540af25b9fda0587ae|{sha1}b8d4d8a159d59377362edc5eb7bd78b6bfbaa9c1
org.apache.xmlgraphics:batik-util:1.7:jar:-:compile|org.apache.xmlgraphics:batik-transcoder:jar:1.7|{sha1}5c4dd0dd9a86a2fba2c6ea26fb62b32b21b2a61e|{sha1}e1065f9ee3cc191c030208fb16940993f9627ad7
org.apache.xmlgraphics:batik-xml:1.7:jar:-:compile|org.apache.xmlgraphics:batik-transcoder:jar:1.7|{sha1}17e3da8bd9d4a131350a7835f5cc0d93ba199c89|{sha1}03dc56d3e3225f2bfae661e76cebd94a43ae3601
org.codehaus.jackson:jackson-core-asl:1.9.13-atlassian-1:jar:-:compile|com.atlassian.jira:jira-api:jar:7.3.8|{sha1}ff582bd673f51b98125fcb1376bfff35f93dddb4|{sha1}d16eacddee5d5c8ad9bfc80f6a04fd36190df244
org.codehaus.jackson:jackson-mapper-asl:1.9.13-atlassian-1:jar:-:compile|com.atlassian.jira:jira-api:jar:7.3.8|{sha1}fbd65702d1fbdc8ea4fe795a19377d2453cecf65|{sha1}9bd76e7302ea9709dbab1077b85dd9414c596163
org.slf4j:slf4j-api:1.7.9:jar:-:compile|com.atlassian.jira:jira-api:jar:7.3.8|{sha1}872ec63b41181e29ad5a3723f1417356e2d2c0f2|{sha1}e8ec8fb561ebbb743aaebc1ba41bf3c43116bed8
org.springframework:spring-aop:4.1.6.RELEASE:jar:-:compile|org.springframework:spring-context:jar:4.1.6.RELEASE|{sha1}686c13ba57d9423dede9c5d580dcadc5c67a2761|{sha1}a16e518bb8bd6e83fa5dcd9fffd6d8f1cde9e0b6
org.springframework:spring-expression:4.1.6.RELEASE:jar:-:compile|org.springframework:spring-context:jar:4.1.6.RELEASE|{sha1}8bf70887c2c883a6f6e552dbe46eec35c07adf6a|{sha1}8b37f9746fc2ee18eee411ef5d80a6265831b764
org.springframework:spring-web:2.0.6:jar:-:compile|com.atlassian.config:atlassian-config:jar:0.15,com.atlassian.spring:atlassian-spring:jar:2.0.0|{sha1}19ef5a0c1558fe83816106507b2461c18b6ddf5c|{sha1}565df73412b87b9dd4f52e250ef1d5ac7140cddc
org.springframework.data:spring-data-commons:1.6.1.RELEASE:jar:-:compile|org.springframework.ldap:spring-ldap-core:jar:2.0.2.RELEASE|{sha1}772e2daa59003ae968c5738077b3966e16fff02d|{sha1}dcf7dcf451ff59b35be5601515632542c25c3fb5
org.springframework.security:spring-security-crypto:3.1.0.RELEASE:jar:-:compile|org.springframework.security:spring-security-core:jar:3.1.0.RELEASE|{sha1}05d00d9c9ac8067c323b517c1fe3a81984bcfc1d|{sha1}f6874cab44e2e3afb3ff5448aa6efc5833d558dd
org.twdata.pkgscanner:package-scanner:0.9.5:jar:-:compile|com.atlassian.plugins:atlassian-plugins-osgi:jar:4.2.9|{sha1}0bbf358db80c6db8f1bc8ad179e4f52542a2b5eb|{sha1}280a5c44b0e8227c3eb00cc79a8339778b5eac4b
osworkflow:osworkflow:2.9.0-atlassian-1:jar:-:compile|com.atlassian.jira:jira-api:jar:7.3.8|{sha1}ee7c174e8774b2f7d59a80ed773b2953431cd0ad|{sha1}1f1ddfc9a2223f3e48a7258a742331cb867b4756
webwork:pell-multipart-request:1.31.0:jar:-:compile|com.atlassian.jira:jira-api:jar:7.3.8|{sha1}1641fba365cc4ef25d8e0be7277178ea00110ccd|{sha1}5ee81323fffd3df5d2a0b444289a96d812048bdd
xalan:serializer:2.7.2:jar:-:compile|xalan:xalan:jar:2.7.2|{sha1}24247f3bb052ee068971393bdb83e04512bb1c3c|{sha1}454c86397279a646a38afad68bd8f2f465de7bfe
xml-apis:xml-apis-ext:1.3.04:jar:-:compile|org.apache.xmlgraphics:batik-transcoder:jar:1.7|{sha1}41a8b86b358e87f3f13cf46069721719105aff66|{sha1}69b6d2ff0fb53b388289f967705f873bf779a463
xmlpull:xmlpull:1.1.3.1:jar:-:compile|com.thoughtworks.xstream:xstream:jar:1.4.8|{sha1}2b8e230d2ab644e4ecaa94db7cdedbc40c805dfa|{sha1}02727a9a35d75a77344fea0e9866477aff7c19d6
