{
    "onboarding.jiraFirstUseFlow.chooseLanguage.started": [],
    "onboarding.jiraFirstUseFlow.chooseLanguage.noLanguages": [],
    "onboarding.jiraFirstUseFlow.chooseLanguage.notAuthorized": [],
    "onboarding.jiraFirstUseFlow.chooseLanguage.errorOnSave": [
        {"error": [ "message", "statusCode" ] },
        "language"
    ],
    "onboarding.jiraFirstUseFlow.chooseLanguage.done": [
        "choseDefault",
        "language",
        "oldLanguage"
    ],

    "onboarding.jiraFirstUseFlow.avatar.started": [],
    "onboarding.jiraFirstUseFlow.avatar.selectedAvatar": [
        "avatarId"
    ],

    "onboarding.jiraFirstUseFlow.nutshell.started": [],
    "onboarding.jiraFirstUseFlow.nutshell.done": [],
    "onboarding.jiraFirstUseFlow.nutshell.isSkipped": [],

    "onboarding.jiraFirstUseFlow.createProject.started": [],
    "onboarding.jiraFirstUseFlow.createProject.projectCreated": [],
    "onboarding.jiraFirstUseFlow.createProject.noPermission": [],
    "onboarding.jiraFirstUseFlow.createProject.noProjectTemplateFound": [],
    "onboarding.jiraFirstUseFlow.createProject.skipped": [],
    "onboarding.jiraFirstUseFlow.createProject.done": [],

    "onboarding.jiraFirstUseFlow.createIssues.noPermission": [],
    "onboarding.jiraFirstUseFlow.createIssues.started": [],
    "onboarding.jiraFirstUseFlow.createIssues.issueCreated": [],
    "onboarding.jiraFirstUseFlow.createIssues.noProject": [],
    "onboarding.jiraFirstUseFlow.createIssues.skipped": [],
    "onboarding.jiraFirstUseFlow.createIssues.done": [],

    "onboarding.jiraFirstUseFlow.assignIssues.started": [],
    "onboarding.jiraFirstUseFlow.assignIssues.issueAssigned": [],
    "onboarding.jiraFirstUseFlow.assignIssues.noPermission": [],
    "onboarding.jiraFirstUseFlow.assignIssues.noIssues": [],
    "onboarding.jiraFirstUseFlow.assignIssues.insufficientUsers": [],
    "onboarding.jiraFirstUseFlow.assignIssues.skipped": [],
    "onboarding.jiraFirstUseFlow.assignIssues.done": [],

    "onboarding.jiraFirstUseFlow.cyoa.started": [],
    "onboarding.jiraFirstUseFlow.cyoa.sampleData": [],
    "onboarding.jiraFirstUseFlow.cyoa.emptyProject": [],
    "onboarding.jiraFirstUseFlow.cyoa.import": [],
    "onboarding.jiraFirstUseFlow.cyoa.done": [],

    "onboarding.jiraFirstUseFlow.cyoa:return.started": [],
    "onboarding.jiraFirstUseFlow.cyoa:return.sampleData": [],
    "onboarding.jiraFirstUseFlow.cyoa:return.emptyProject": [],
    "onboarding.jiraFirstUseFlow.cyoa:return.import": [],
    "onboarding.jiraFirstUseFlow.cyoa:return.done": [],

    "onboarding.jiraFirstUseFlow.nextStep.started": [],
    "onboarding.jiraFirstUseFlow.nextStep.browseprojects": [],
    "onboarding.jiraFirstUseFlow.nextStep.createissue": [],
    "onboarding.jiraFirstUseFlow.nextStep.searchissues": [],
    "onboarding.jiraFirstUseFlow.nextStep.done": []
}
