{
  "jira.CreationDate" : "2014-07-17",
  "jira.PurchaseDate": "2014-07-17",
  "jira.Description" : "Testing license with BusinessUser role.",
  "jira.LicenseEdition" : "ENTERPRISE",
  "jira.LicenseExpiryDate" : "P1H",
  "jira.LicenseID" : "LicenseID",
  "jira.LicenseTypeName" : "COMMERCIAL",
  "jira.MaintenanceExpiryDate" : "P1H",
  "jira.NumberOfUsers" : "-1",
  "jira.Organisation" : "JIRA Development",
  "jira.SEN" : "SEN",
  "jira.ServerID" : "BG9T-XUV4-KZZH-B01W",
  "jira.active" : "true",
  "jira.product.jira-core.NumberOfUsers" : "5",
  "jira.product.jira-core.active" : "true",
  "licenseVersion" : "2"
}