{
  "CreationDate" : "2039-12-01",
  "Description" : "JIRA Enterprise: Commercial Server",
  "LicenseExpiryDate" : "2999-01-01",
  "LicenseTypeName" : "COMMERCIAL",
  "MaintenanceExpiryDate" : "2999-01-01",
  "NumberOfUsers" : "10",
  "Organisation" : "Atlassian JIRA Development",
  "PurchaseDate" : "2039-12-01",
  "SEN" : "TestSEN",
  "ServerID" : "BServerID",
  "jira.LicenseEdition" : "ENTERPRISE",
  "jira.active" : "true",
  "jira.product.jira-core.NumberOfUsers" : "3",
  "jira.product.jira-core.active" : "true",
  "jira.product.jira-servicedesk.NumberOfUsers" : "2",
  "jira.product.jira-servicedesk.active" : "true",
  "licenseVersion" : "2"
}