{
    "ContactEMail": "vbharara@atlassian.com",
    "ContactName": "Veenu Bharara",
    "CreationDate": "2009-09-01",
    "Description": "JIRA Enterprise: Commercial Server",
    "Evaluation": "false",
    "jira.active": "true",
    "jira.LicenseEdition": "ENTERPRISE",
    "jira.LicenseTypeName": "COMMERCIAL",
    "LicenseExpiryDate": "P72H",
    "LicenseID": "LID1067544",
    "licenseVersion": "2",
    "MaintenanceExpiryDate": "2009-08-20",
    "Organisation": "Test Expired License",
    "PurchaseDate": "2007-08-20",
    "SEN": "1067544",
    "ServerID": "BTN6-V0YT-WCEB-BK5P"
}