{
  "ServerID" : "BG9T-XUV4-KZZH-B01W",
  "jira.ContactEMail" : "",
  "jira.ContactName" : "",
  "jira.CreationDate" : "2000-01-01",
  "jira.Description" : "JIRA Enterprise: Personal",
  "jira.Evaluation" : "false",
  "jira.LicenseEdition" : "ENTERPRISE",
  "jira.LicenseExpiryDate" : "P72H",
  "jira.LicenseTypeName" : "PERSONAL",
  "jira.MaintenanceExpiryDate" : "P72H",
  "jira.NumberOfUsers" : "3",
  "jira.Organisation" : "Atlassian",
  "jira.PartnerName" : "",
  "jira.PurchaseDate" : "2000-01-01",
  "jira.SEN" : "TestSEN",
  "jira.active" : "true",
  "licenseVersion" : "2"
}